<svg xmlns="http://www.w3.org/2000/svg" width="26" height="30" viewBox="0 0 26 30">
  <metadata><?xpacket begin="﻿" id="W5M0MpCehiHzreSzNTczkc9d"?>
<x:xmpmeta xmlns:x="adobe:ns:meta/" x:xmptk="Adobe XMP Core 5.6-c138 79.159824, 2016/09/14-01:09:01        ">
   <rdf:RDF xmlns:rdf="http://www.w3.org/1999/02/22-rdf-syntax-ns#">
      <rdf:Description rdf:about=""/>
   </rdf:RDF>
</x:xmpmeta>
                                                                                                    
                                                                                                    
                                                                                                    
                                                                                                    
                                                                                                    
                                                                                                    
                                                                                                    
                                                                                                    
                                                                                                    
                                                                                                    
                                                                                                    
                                                                                                    
                                                                                                    
                                                                                                    
                                                                                                    
                                                                                                    
                                                                                                    
                                                                                                    
                                                                                                    
                                                                                                    
                           
<?xpacket end="w"?></metadata>
<defs>
    <style>
      .cls-1 {
        fill: #56bdbd;
        fill-rule: evenodd;
      }
    </style>
  </defs>
  <path class="cls-1" d="M681.311,403H656.689a0.69,0.69,0,0,1-.689-0.69V400.1c0-6.741,4.217-11.1,12.291-11.1h1.417c8.074,0,12.291,4.356,12.291,11.1v2.208A0.688,0.688,0,0,1,681.311,403ZM658,401H680v-1.349c0-6.369-4.85-8.638-10.324-8.638h-1.347c-5.474,0-10.323,2.269-10.323,8.638V401Zm11-13.983c-3.851,0-6.984-2.781-6.984-6.2V379.2c0-3.419,3.133-6.2,6.984-6.2s6.983,2.781,6.983,6.2v1.613C675.983,384.232,672.851,387.013,669,387.013ZM669,375c-2.765,0-5.013,1.924-5.013,4.29v1.424c0,2.366,2.248,4.29,5.013,4.29s5.013-1.924,5.013-4.29v-1.424C674.013,376.928,671.764,375,669,375Z" transform="translate(-656 -373)"/>
</svg>
